%YAML 1.1
%TAG !u! tag:unity3d.com,2011:
--- !u!29 &1
OcclusionCullingSettings:
  m_ObjectHideFlags: 0
  serializedVersion: 2
  m_OcclusionBakeSettings:
    smallestOccluder: 5
    smallestHole: 0.25
    backfaceThreshold: 100
  m_SceneGUID: 00000000000000000000000000000000
  m_OcclusionCullingData: {fileID: 0}
--- !u!104 &2
RenderSettings:
  m_ObjectHideFlags: 0
  serializedVersion: 7
  m_Fog: 0
  m_FogColor: {r: 0.5, g: 0.5, b: 0.5, a: 1}
  m_FogMode: 3
  m_FogDensity: 0.01
  m_LinearFogStart: 0
  m_LinearFogEnd: 300
  m_AmbientSkyColor: {r: 0.212, g: 0.227, b: 0.259, a: 1}
  m_AmbientEquatorColor: {r: 0.114, g: 0.125, b: 0.133, a: 1}
  m_AmbientGroundColor: {r: 0.047, g: 0.043, b: 0.035, a: 1}
  m_AmbientIntensity: 1
  m_AmbientMode: 3
  m_SkyboxMaterial: {fileID: 0}
  m_HaloStrength: 0.5
  m_FlareStrength: 1
  m_FlareFadeSpeed: 3
  m_HaloTexture: {fileID: 0}
  m_SpotCookie: {fileID: 10001, guid: 0000000000000000e000000000000000, type: 0}
  m_DefaultReflectionMode: 0
  m_DefaultReflectionResolution: 128
  m_ReflectionBounces: 1
  m_ReflectionIntensity: 1
  m_CustomReflection: {fileID: 0}
  m_Sun: {fileID: 0}
  m_IndirectSpecularColor: {r: 0, g: 0, b: 0, a: 1}
--- !u!157 &3
LightmapSettings:
  m_ObjectHideFlags: 0
  serializedVersion: 7
  m_GIWorkflowMode: 1
  m_GISettings:
    serializedVersion: 2
    m_BounceScale: 1
    m_IndirectOutputScale: 1
    m_AlbedoBoost: 1
    m_TemporalCoherenceThreshold: 1
    m_EnvironmentLightingMode: 0
    m_EnableBakedLightmaps: 0
    m_EnableRealtimeLightmaps: 0
  m_LightmapEditorSettings:
    serializedVersion: 4
    m_Resolution: 2
    m_BakeResolution: 40
    m_TextureWidth: 1024
    m_TextureHeight: 1024
    m_AO: 0
    m_AOMaxDistance: 1
    m_CompAOExponent: 1
    m_CompAOExponentDirect: 0
    m_Padding: 2
    m_LightmapParameters: {fileID: 0}
    m_LightmapsBakeMode: 1
    m_TextureCompression: 1
    m_DirectLightInLightProbes: 1
    m_FinalGather: 0
    m_FinalGatherFiltering: 1
    m_FinalGatherRayCount: 256
    m_ReflectionCompression: 2
  m_LightingDataAsset: {fileID: 0}
  m_RuntimeCPUUsage: 25
--- !u!196 &4
NavMeshSettings:
  serializedVersion: 2
  m_ObjectHideFlags: 0
  m_BuildSettings:
    serializedVersion: 2
    agentTypeID: 0
    agentRadius: 0.5
    agentHeight: 2
    agentSlope: 45
    agentClimb: 0.4
    ledgeDropHeight: 0
    maxJumpAcrossDistance: 0
    minRegionArea: 2
    manualCellSize: 0
    cellSize: 0.16666667
    accuratePlacement: 0
  m_NavMeshData: {fileID: 0}
--- !u!1001 &776229584
Prefab:
  m_ObjectHideFlags: 0
  serializedVersion: 2
  m_Modification:
    m_TransformParent: {fileID: 0}
    m_Modifications:
    - target: {fileID: 224607632842583976, guid: 1de9a7bb5f44ff44faa1fda4841e3cd8,
        type: 2}
      propertyPath: m_LocalPosition.x
      value: 0
      objectReference: {fileID: 0}
    - target: {fileID: 224607632842583976, guid: 1de9a7bb5f44ff44faa1fda4841e3cd8,
        type: 2}
      propertyPath: m_LocalPosition.y
      value: 0
      objectReference: {fileID: 0}
    - target: {fileID: 224607632842583976, guid: 1de9a7bb5f44ff44faa1fda4841e3cd8,
        type: 2}
      propertyPath: m_LocalPosition.z
      value: 0
      objectReference: {fileID: 0}
    - target: {fileID: 224607632842583976, guid: 1de9a7bb5f44ff44faa1fda4841e3cd8,
        type: 2}
      propertyPath: m_LocalRotation.x
      value: 0
      objectReference: {fileID: 0}
    - target: {fileID: 224607632842583976, guid: 1de9a7bb5f44ff44faa1fda4841e3cd8,
        type: 2}
      propertyPath: m_LocalRotation.y
      value: 0
      objectReference: {fileID: 0}
    - target: {fileID: 224607632842583976, guid: 1de9a7bb5f44ff44faa1fda4841e3cd8,
        type: 2}
      propertyPath: m_LocalRotation.z
      value: 0
      objectReference: {fileID: 0}
    - target: {fileID: 224607632842583976, guid: 1de9a7bb5f44ff44faa1fda4841e3cd8,
        type: 2}
      propertyPath: m_LocalRotation.w
      value: 1
      objectReference: {fileID: 0}
    - target: {fileID: 224607632842583976, guid: 1de9a7bb5f44ff44faa1fda4841e3cd8,
        type: 2}
      propertyPath: m_RootOrder
      value: 2
      objectReference: {fileID: 0}
    - target: {fileID: 224607632842583976, guid: 1de9a7bb5f44ff44faa1fda4841e3cd8,
        type: 2}
      propertyPath: m_AnchoredPosition.x
      value: 0
      objectReference: {fileID: 0}
    - target: {fileID: 224607632842583976, guid: 1de9a7bb5f44ff44faa1fda4841e3cd8,
        type: 2}
      propertyPath: m_AnchoredPosition.y
      value: 0
      objectReference: {fileID: 0}
    - target: {fileID: 224607632842583976, guid: 1de9a7bb5f44ff44faa1fda4841e3cd8,
        type: 2}
      propertyPath: m_SizeDelta.x
      value: 0
      objectReference: {fileID: 0}
    - target: {fileID: 224607632842583976, guid: 1de9a7bb5f44ff44faa1fda4841e3cd8,
        type: 2}
      propertyPath: m_SizeDelta.y
      value: 0
      objectReference: {fileID: 0}
    - target: {fileID: 224607632842583976, guid: 1de9a7bb5f44ff44faa1fda4841e3cd8,
        type: 2}
      propertyPath: m_AnchorMin.x
      value: 0
      objectReference: {fileID: 0}
    - target: {fileID: 224607632842583976, guid: 1de9a7bb5f44ff44faa1fda4841e3cd8,
        type: 2}
      propertyPath: m_AnchorMin.y
      value: 0
      objectReference: {fileID: 0}
    - target: {fileID: 224607632842583976, guid: 1de9a7bb5f44ff44faa1fda4841e3cd8,
        type: 2}
      propertyPath: m_AnchorMax.x
      value: 0
      objectReference: {fileID: 0}
    - target: {fileID: 224607632842583976, guid: 1de9a7bb5f44ff44faa1fda4841e3cd8,
        type: 2}
      propertyPath: m_AnchorMax.y
      value: 0
      objectReference: {fileID: 0}
    - target: {fileID: 224607632842583976, guid: 1de9a7bb5f44ff44faa1fda4841e3cd8,
        type: 2}
      propertyPath: m_Pivot.x
      value: 0
      objectReference: {fileID: 0}
    - target: {fileID: 224607632842583976, guid: 1de9a7bb5f44ff44faa1fda4841e3cd8,
        type: 2}
      propertyPath: m_Pivot.y
      value: 0
      objectReference: {fileID: 0}
    - target: {fileID: 114713051139108182, guid: 1de9a7bb5f44ff44faa1fda4841e3cd8,
        type: 2}
      propertyPath: m_OnClick.m_PersistentCalls.m_Calls.Array.data[0].m_Target
      value: 
      objectReference: {fileID: 1452551475}
    - target: {fileID: 224282952959988450, guid: 1de9a7bb5f44ff44faa1fda4841e3cd8,
        type: 2}
      propertyPath: m_AnchorMin.y
      value: 1
      objectReference: {fileID: 0}
    - target: {fileID: 224282952959988450, guid: 1de9a7bb5f44ff44faa1fda4841e3cd8,
        type: 2}
      propertyPath: m_AnchorMax.y
      value: 1
      objectReference: {fileID: 0}
    - target: {fileID: 224282952959988450, guid: 1de9a7bb5f44ff44faa1fda4841e3cd8,
        type: 2}
      propertyPath: m_AnchoredPosition.x
      value: 85.46474
      objectReference: {fileID: 0}
    - target: {fileID: 224282952959988450, guid: 1de9a7bb5f44ff44faa1fda4841e3cd8,
        type: 2}
      propertyPath: m_AnchoredPosition.y
      value: -146.14069
      objectReference: {fileID: 0}
    - target: {fileID: 224282952959988450, guid: 1de9a7bb5f44ff44faa1fda4841e3cd8,
        type: 2}
      propertyPath: m_SizeDelta.x
      value: 90
      objectReference: {fileID: 0}
    - target: {fileID: 224282952959988450, guid: 1de9a7bb5f44ff44faa1fda4841e3cd8,
        type: 2}
      propertyPath: m_SizeDelta.y
      value: 90
      objectReference: {fileID: 0}
    - target: {fileID: 224644139829075038, guid: 1de9a7bb5f44ff44faa1fda4841e3cd8,
        type: 2}
      propertyPath: m_AnchorMin.y
      value: 1
      objectReference: {fileID: 0}
    - target: {fileID: 224644139829075038, guid: 1de9a7bb5f44ff44faa1fda4841e3cd8,
        type: 2}
      propertyPath: m_AnchorMax.y
      value: 1
      objectReference: {fileID: 0}
    - target: {fileID: 224644139829075038, guid: 1de9a7bb5f44ff44faa1fda4841e3cd8,
        type: 2}
      propertyPath: m_AnchoredPosition.x
      value: 195.46474
      objectReference: {fileID: 0}
    - target: {fileID: 224644139829075038, guid: 1de9a7bb5f44ff44faa1fda4841e3cd8,
        type: 2}
      propertyPath: m_AnchoredPosition.y
      value: -146.14069
      objectReference: {fileID: 0}
    - target: {fileID: 224644139829075038, guid: 1de9a7bb5f44ff44faa1fda4841e3cd8,
        type: 2}
      propertyPath: m_SizeDelta.x
      value: 90
      objectReference: {fileID: 0}
    - target: {fileID: 224644139829075038, guid: 1de9a7bb5f44ff44faa1fda4841e3cd8,
        type: 2}
      propertyPath: m_SizeDelta.y
      value: 90
      objectReference: {fileID: 0}
    - target: {fileID: 224763155249224546, guid: 1de9a7bb5f44ff44faa1fda4841e3cd8,
        type: 2}
      propertyPath: m_AnchorMin.y
      value: 1
      objectReference: {fileID: 0}
    - target: {fileID: 224763155249224546, guid: 1de9a7bb5f44ff44faa1fda4841e3cd8,
        type: 2}
      propertyPath: m_AnchorMax.y
      value: 1
      objectReference: {fileID: 0}
    - target: {fileID: 224763155249224546, guid: 1de9a7bb5f44ff44faa1fda4841e3cd8,
        type: 2}
      propertyPath: m_AnchoredPosition.x
      value: 85.46474
      objectReference: {fileID: 0}
    - target: {fileID: 224763155249224546, guid: 1de9a7bb5f44ff44faa1fda4841e3cd8,
        type: 2}
      propertyPath: m_AnchoredPosition.y
      value: -271.1407
      objectReference: {fileID: 0}
    - target: {fileID: 224763155249224546, guid: 1de9a7bb5f44ff44faa1fda4841e3cd8,
        type: 2}
      propertyPath: m_SizeDelta.x
      value: 90
      objectReference: {fileID: 0}
    - target: {fileID: 224763155249224546, guid: 1de9a7bb5f44ff44faa1fda4841e3cd8,
        type: 2}
      propertyPath: m_SizeDelta.y
      value: 90
      objectReference: {fileID: 0}
    - target: {fileID: 224228083244209554, guid: 1de9a7bb5f44ff44faa1fda4841e3cd8,
        type: 2}
      propertyPath: m_AnchorMin.y
      value: 1
      objectReference: {fileID: 0}
    - target: {fileID: 224228083244209554, guid: 1de9a7bb5f44ff44faa1fda4841e3cd8,
        type: 2}
      propertyPath: m_AnchorMax.y
      value: 1
      objectReference: {fileID: 0}
    - target: {fileID: 224228083244209554, guid: 1de9a7bb5f44ff44faa1fda4841e3cd8,
        type: 2}
      propertyPath: m_AnchoredPosition.x
      value: 195.46474
      objectReference: {fileID: 0}
    - target: {fileID: 224228083244209554, guid: 1de9a7bb5f44ff44faa1fda4841e3cd8,
        type: 2}
      propertyPath: m_AnchoredPosition.y
      value: -271.1407
      objectReference: {fileID: 0}
    - target: {fileID: 224228083244209554, guid: 1de9a7bb5f44ff44faa1fda4841e3cd8,
        type: 2}
      propertyPath: m_SizeDelta.x
      value: 90
      objectReference: {fileID: 0}
    - target: {fileID: 224228083244209554, guid: 1de9a7bb5f44ff44faa1fda4841e3cd8,
        type: 2}
      propertyPath: m_SizeDelta.y
      value: 90
      objectReference: {fileID: 0}
    - target: {fileID: 114117444400080530, guid: 1de9a7bb5f44ff44faa1fda4841e3cd8,
        type: 2}
      propertyPath: m_FontData.m_BestFit
      value: 1
      objectReference: {fileID: 0}
    - target: {fileID: 114117444400080530, guid: 1de9a7bb5f44ff44faa1fda4841e3cd8,
        type: 2}
      propertyPath: m_FontData.m_MinSize
      value: 30
      objectReference: {fileID: 0}
    m_RemovedComponents: []
  m_ParentPrefab: {fileID: 100100000, guid: 1de9a7bb5f44ff44faa1fda4841e3cd8, type: 2}
  m_IsPrefabParent: 0
--- !u!1 &1124060894
GameObject:
  m_ObjectHideFlags: 0
  m_PrefabParentObject: {fileID: 0}
  m_PrefabInternal: {fileID: 0}
  serializedVersion: 5
  m_Component:
  - component: {fileID: 1124060899}
  - component: {fileID: 1124060898}
  - component: {fileID: 1124060897}
  - component: {fileID: 1124060896}
  - component: {fileID: 1124060895}
  m_Layer: 0
  m_Name: Main Camera
  m_TagString: MainCamera
  m_Icon: {fileID: 0}
  m_NavMeshLayer: 0
  m_StaticEditorFlags: 0
  m_IsActive: 1
--- !u!81 &1124060895
AudioListener:
  m_ObjectHideFlags: 0
  m_PrefabParentObject: {fileID: 0}
  m_PrefabInternal: {fileID: 0}
  m_GameObject: {fileID: 1124060894}
  m_Enabled: 1
--- !u!124 &1124060896
Behaviour:
  m_ObjectHideFlags: 0
  m_PrefabParentObject: {fileID: 0}
  m_PrefabInternal: {fileID: 0}
  m_GameObject: {fileID: 1124060894}
  m_Enabled: 1
--- !u!92 &1124060897
Behaviour:
  m_ObjectHideFlags: 0
  m_PrefabParentObject: {fileID: 0}
  m_PrefabInternal: {fileID: 0}
  m_GameObject: {fileID: 1124060894}
  m_Enabled: 1
--- !u!20 &1124060898
Camera:
  m_ObjectHideFlags: 0
  m_PrefabParentObject: {fileID: 0}
  m_PrefabInternal: {fileID: 0}
  m_GameObject: {fileID: 1124060894}
  m_Enabled: 1
  serializedVersion: 2
  m_ClearFlags: 1
  m_BackGroundColor: {r: 0.19215687, g: 0.3019608, b: 0.4745098, a: 0}
  m_NormalizedViewPortRect:
    serializedVersion: 2
    x: 0
    y: 0
    width: 1
    height: 1
  near clip plane: 0.3
  far clip plane: 1000
  field of view: 60
  orthographic: 1
  orthographic size: 5
  m_Depth: -1
  m_CullingMask:
    serializedVersion: 2
    m_Bits: 4294967295
  m_RenderingPath: -1
  m_TargetTexture: {fileID: 0}
  m_TargetDisplay: 0
  m_TargetEye: 3
  m_HDR: 0
  m_OcclusionCulling: 1
  m_StereoConvergence: 10
  m_StereoSeparation: 0.022
  m_StereoMirrorMode: 0
--- !u!4 &1124060899
Transform:
  m_ObjectHideFlags: 0
  m_PrefabParentObject: {fileID: 0}
  m_PrefabInternal: {fileID: 0}
  m_GameObject: {fileID: 1124060894}
  m_LocalRotation: {x: 0, y: 0, z: 0, w: 1}
  m_LocalPosition: {x: 0, y: 0, z: -10}
  m_LocalScale: {x: 1, y: 1, z: 1}
  m_Children: []
  m_Father: {fileID: 0}
  m_RootOrder: 0
  m_LocalEulerAnglesHint: {x: 0, y: 0, z: 0}
--- !u!1001 &1452551474
Prefab:
  m_ObjectHideFlags: 0
  serializedVersion: 2
  m_Modification:
    m_TransformParent: {fileID: 0}
    m_Modifications:
    - target: {fileID: 4732372126446992, guid: 6c18c567384a5444e8446d670695ec79, type: 2}
      propertyPath: m_LocalPosition.x
      value: 0
      objectReference: {fileID: 0}
    - target: {fileID: 4732372126446992, guid: 6c18c567384a5444e8446d670695ec79, type: 2}
      propertyPath: m_LocalPosition.y
      value: 0
      objectReference: {fileID: 0}
    - target: {fileID: 4732372126446992, guid: 6c18c567384a5444e8446d670695ec79, type: 2}
      propertyPath: m_LocalPosition.z
      value: 0
      objectReference: {fileID: 0}
    - target: {fileID: 4732372126446992, guid: 6c18c567384a5444e8446d670695ec79, type: 2}
      propertyPath: m_LocalRotation.x
      value: 0
      objectReference: {fileID: 0}
    - target: {fileID: 4732372126446992, guid: 6c18c567384a5444e8446d670695ec79, type: 2}
      propertyPath: m_LocalRotation.y
      value: 0
      objectReference: {fileID: 0}
    - target: {fileID: 4732372126446992, guid: 6c18c567384a5444e8446d670695ec79, type: 2}
      propertyPath: m_LocalRotation.z
      value: 0
      objectReference: {fileID: 0}
    - target: {fileID: 4732372126446992, guid: 6c18c567384a5444e8446d670695ec79, type: 2}
      propertyPath: m_LocalRotation.w
      value: 1
      objectReference: {fileID: 0}
    - target: {fileID: 4732372126446992, guid: 6c18c567384a5444e8446d670695ec79, type: 2}
      propertyPath: m_RootOrder
      value: 1
      objectReference: {fileID: 0}
    - target: {fileID: 114373966886654488, guid: 6c18c567384a5444e8446d670695ec79,
        type: 2}
      propertyPath: resetDataKey
      value: 113
      objectReference: {fileID: 0}
    m_RemovedComponents: []
  m_ParentPrefab: {fileID: 100100000, guid: 6c18c567384a5444e8446d670695ec79, type: 2}
  m_IsPrefabParent: 0
--- !u!114 &1452551475 stripped
MonoBehaviour:
  m_PrefabParentObject: {fileID: 114567133989285116, guid: 6c18c567384a5444e8446d670695ec79,
    type: 2}
  m_PrefabInternal: {fileID: 1452551474}
  m_Script: {fileID: 11500000, guid: 12aadcd26a63a4c5aba6db251a62d613, type: 3}
--- !u!1 &1593111222
GameObject:
  m_ObjectHideFlags: 0
  m_PrefabParentObject: {fileID: 0}
  m_PrefabInternal: {fileID: 0}
  serializedVersion: 5
  m_Component:
  - component: {fileID: 1593111225}
  - component: {fileID: 1593111224}
  - component: {fileID: 1593111223}
  m_Layer: 0
  m_Name: EventSystem
  m_TagString: Untagged
  m_Icon: {fileID: 0}
  m_NavMeshLayer: 0
  m_StaticEditorFlags: 0
  m_IsActive: 1
--- !u!114 &1593111223
MonoBehaviour:
  m_ObjectHideFlags: 0
  m_PrefabParentObject: {fileID: 0}
  m_PrefabInternal: {fileID: 0}
  m_GameObject: {fileID: 1593111222}
  m_Enabled: 1
  m_EditorHideFlags: 0
  m_Script: {fileID: 1077351063, guid: f70555f144d8491a825f0804e09c671c, type: 3}
  m_Name: 
  m_EditorClassIdentifier: 
  m_HorizontalAxis: Horizontal
  m_VerticalAxis: Vertical
  m_SubmitButton: Submit
  m_CancelButton: Cancel
  m_InputActionsPerSecond: 10
  m_RepeatDelay: 0.5
  m_ForceModuleActive: 0
--- !u!114 &1593111224
MonoBehaviour:
  m_ObjectHideFlags: 0
  m_PrefabParentObject: {fileID: 0}
  m_PrefabInternal: {fileID: 0}
  m_GameObject: {fileID: 1593111222}
  m_Enabled: 1
  m_EditorHideFlags: 0
  m_Script: {fileID: -619905303, guid: f70555f144d8491a825f0804e09c671c, type: 3}
  m_Name: 
  m_EditorClassIdentifier: 
  m_FirstSelected: {fileID: 0}
  m_sendNavigationEvents: 1
  m_DragThreshold: 5
--- !u!4 &1593111225
Transform:
  m_ObjectHideFlags: 0
  m_PrefabParentObject: {fileID: 0}
  m_PrefabInternal: {fileID: 0}
  m_GameObject: {fileID: 1593111222}
  m_LocalRotation: {x: 0, y: 0, z: 0, w: 1}
  m_LocalPosition: {x: 0, y: 0, z: 0}
  m_LocalScale: {x: 1, y: 1, z: 1}
  m_Children: []
  m_Father: {fileID: 0}
  m_RootOrder: 3
  m_LocalEulerAnglesHint: {x: 0, y: 0, z: 0}
